{
  "index": "/index.html",
  "assetGroups": [
    {
      "name": "app",
      "installMode": "prefetch",
      "resources": {
        "files": [
          "/favicon.ico",
          "/index.html",
          "/manifest.json",
          "/*.css",
          "/*.js"
        ]
      }
    }, {
      "name": "assets",
      "installMode": "lazy",
      "updateMode": "prefetch",
      "resources": {
        "files": [
          "/assets/**",
          "*.jpg"
        ]
      }
    }
  ],
  "dataGroups": [
    {
      "name": "data",
      "urls": [
        "/data/**"
      ],
      "cacheConfig": {
        "strategy": "freshness",
        "maxSize": 100,
        "maxAge": "30d",
        "timeout": "5s"
      }
    },
    {
      "name": "plantsApi",
      "urls": [
        "http://127.0.0.1:45000/**",
        "https://plantsapi.dev.permaguildes.fr/**",
        "https://plantsapi.beta.permaguildes.fr/**",
        "https://plantsapi.permaguildes.fr/**"
      ],
      "cacheConfig": {
        "strategy": "freshness",
        "maxSize": 100,
        "maxAge": "30d",
        "timeout": "5s"
      }
    },
    {
      "name": "projectsApi",
      "urls": [
        "http://127.0.0.1:45002/**",
        "https://projectsapi.dev.permaguildes.fr/**",
        "https://projectsapi.beta.permaguildes.fr/**",
        "https://projectsapi.permaguildes.fr/**"
      ],
      "cacheConfig": {
        "strategy": "freshness",
        "maxSize": 100,
        "maxAge": "30d",
        "timeout": "5s"
      }
    },
    {
      "name": "nurseriesApi",
      "urls": [
        "http://127.0.0.1:45003/**",
        "https://nurseriesapi.dev.permaguildes.fr/**",
        "https://nurseriesapi.beta.permaguildes.fr/**",
        "https://nurseriesapi.permaguildes.fr/**"
      ],
      "cacheConfig": {
        "strategy": "freshness",
        "maxSize": 100,
        "maxAge": "30d",
        "timeout": "5s"
      }
    },
    {
      "name": "authJwtApi",
      "urls": [
        "http://127.0.0.1:45000/**",
        "https://authjwtapi.dev.permaguildes.fr/**",
        "https://authjwtapi.beta.permaguildes.fr/**",
        "https://authjwtapi.permaguildes.fr/**"
      ],
      "cacheConfig": {
        "strategy": "freshness",
        "maxSize": 100,
        "maxAge": "30d",
        "timeout": "5s"
      }
    },
    {
      "name": "logsApi",
      "urls": [
        "http://127.0.0.1:45001/**",
        "https://logsapi.dev.permaguildes.fr/**",
        "https://logsapi.beta.permaguildes.fr/**",
        "https://logsapi.permaguildes.fr/**"
      ],
      "cacheConfig": {
        "strategy": "freshness",
        "maxSize": 100,
        "maxAge": "30d",
        "timeout": "5s"
      }
    },
    {
      "name": "fonts",
      "urls": [
        "https://fonts.googleapis.com/**",
        "https://fonts.gstatic.com/**"
      ],
      "cacheConfig": {
        "strategy": "performance",
        "maxSize": 100,
        "maxAge": "30d",
        "timeout": "5s"
      }
    }
  ]
}
