[
    {
      "code": 1,
      "name": "Arbre de judée",
      "latinNames": "Cercis siliquastrum",
      "water": 2,
      "growth": 2,
      "codeFamily": 73,
      "codeStratum": 2,
      "edibilityRating": 4,
      "medicinalRating": 0,
      "codeSex": 2,
      "minUsdahardiness": null,
      "maxUsdahardiness": null,
      "minHeight": 6,
      "maxHeight": 8,
      "minSpan": 3,
      "maxSpan": 4,
      "exposureShadow": false,
      "exposureMiddle": false,
      "exposureSun": true,
      "fertility": false,
      "windbreaker": false,
      "nitrate": true,
      "othersMinerals": false,
      "othersMineralsRating": 0,
      "melliferous": false,
      "melliferousRating": 0,
      "aromaticPlant": false,
      "auxiliariesAttractive": true,
      "pestRepellents": false,
      "floweringPeriods": [3,5],
      "harvestPeriods": [3,5],
      "typeMessage": "Plant"
    },
    {
      "code": 2,
      "name": "Caroubier",
      "latinNames": "Ceratonia siliqua",
      "water": 1,
      "growth": 1,
      "codeFamily": 73,
      "codeStratum": 1,
      "edibilityRating": 3,
      "medicinalRating": 2,
      "codeSex": 3,
      "minUsdahardiness": 9,
      "maxUsdahardiness": 11,
      "minHeight": 5,
      "maxHeight": 15,
      "minSpan": 3,
      "maxSpan": 7,
      "exposureShadow": false,
      "exposureMiddle": false,
      "exposureSun": true,
      "fertility": false,
      "windbreaker": false,
      "nitrate": true,
      "othersMinerals": false,
      "othersMineralsRating": 0,
      "melliferous": false,
      "melliferousRating": 0,
      "aromaticPlant": false,
      "auxiliariesAttractive": false,
      "pestRepellents": false,
      "floweringPeriods": [8,10],
      "harvestPeriods": [7,8],
      "pfafUrl": "http://www.pfaf.org/user/Plant.aspx?LatinName=Ceratonia+siliqua",
      "externalLink": "http://lesarbres.fr/caroubier.html",
      "typeMessage": "Plant"
    },
    {
      "code": 3,
      "name": "Arbre à kiwi",
      "latinNames": "Actinidia",
      "water": 3,
      "growth": 3,
      "codeFamily": 3,
      "codeStratum": 7,
      "edibilityRating": 3,
      "medicinalRating": 2,
      "codeSex": 3,
      "minUsdahardiness": 6,
      "maxUsdahardiness": 9,
      "minHeight": 1,
      "maxHeight": 3,
      "minSpan": 1,
      "maxSpan": 3,
      "exposureShadow": false,
      "exposureMiddle": true,
      "exposureSun": true,
      "fertility": false,
      "windbreaker": false,
      "nitrate": false,
      "othersMinerals": false,
      "othersMineralsRating": 2,
      "melliferous": false,
      "melliferousRating": 2,
      "aromaticPlant": false,
      "auxiliariesAttractive": false,
      "pestRepellents": false,
      "floweringPeriods": [5,6],
      "harvestPeriods": [1,2,9,12],
      "typeMessage": "Plant"
    },
    {
      "name": "Kiway",
      "detail": "Plante grimpante",
      "nitrate": false, 
      "auxiliariesAttractive":false
    }
]