﻿{
  "$schema": "http://json.schemastore.org/launchsettings.json",
  "profiles": {
    "NurseriesApi": {
      "commandName": "Project",
      "launchBrowser": true,
      "launchUrl": "NurseriesApi",
      "applicationUrl": "https://localhost:45403;http://localhost:45003",
      "environmentVariables": {
        "ASPNETCORE_ENVIRONMENT": "Development"
      }
    }
  }
}
