{
    "production": true,
    "baseUrl": "https://www.permaguildes.fr",
    "authJwtApi": "https://authapi.permaguildes.fr",
    "plantsApi": "https://plantsapi.permaguildes.fr",
    "logsApi": "https://logsapi.permaguildes.fr",
    "projectsApi": "https://projectsApi.permaguildes.fr",
    "nurseriesApi": "https://nurseriesApi.permaguildes.fr"
}

